{
	"100": {
		"ENG": "Internal Server Error.",
		"SPA": "Error Interno Del Servidor."
	},
	"101": {
		"ENG": "Error Validation.",
		"SPA": "Error De Validación."
	},
	"102": {
		"ENG": "Unauthorized.",
		"SPA": "Sin Autorización."
	},
	"103": {
		"ENG": "Error Operation.",
		"SPA": "Error Al Realizar La Operación."
	},
	"104": {
		"ENG": "Uri Parameter Is Missing.",
		"SPA": "Parámetro de Uri Faltante."
	},
	"200": {
		"ENG": "The Username Is Already Registered.",
		"SPA": "El Nombre de Usuario Ya Se Encuentra Registrado."
	},
	"201": {
		"ENG": "The User Is Already Registered.",
		"SPA": "El Usuario Ya Se Encuentra Registrado."
	},
	"202": {
		"ENG": "The User Is Not Registered.",
		"SPA": "El Usuario No Se Encuentra Registrado."
	},
	"203": {
		"ENG": "Invalid Login Attempt.",
		"SPA": "Intento De Login Inválido."
	},
	"204": {
		"ENG": "Error Updating Customer.",
		"SPA": "Error Al actualizar Usuario."
	},
	"206": {
		"ENG": "Invalid Security Code.",
		"SPA": "Codigo De Seguridad Inválido."
	},
	"207": {
		"ENG": "Customer Pending For Activation.",
		"SPA": "Cliente Pendiente Por Activación."
	},
	"208": {
		"ENG": "Invalid Operation.",
		"SPA": "Operación Inválida."
	},
	"209": {
		"ENG": "The Destiny Customer Is Not Found.",
		"SPA": "El Cliente Destino No Se Encuentra."
	},
	"210": {
		"ENG": "Account Not Activated.",
		"SPA": "Cuenta No Activada."
	},
	"211": {
		"ENG": "2FA Not Found.",
		"SPA": "2FA No Encontrado."
	},
	"212": {
		"ENG": "Passport Not Found.",
		"SPA": "Pasaporte No Encontrado."
	},
	"213": {
		"ENG": "Already logged in.",
		"SPA": "Sesión ya iniciada."
	},
	"214": {
		"ENG": "Invalid Close Token.",
		"SPA": "Close Token Inválido."
	},
	"215": {
		"ENG": "Error Login Out.",
		"SPA": "Error Al Cerrar Sesión."
	},
	"216": {
		"ENG": "Invalid User Role.",
		"SPA": "Rol De Usuario Inválido."
	},
	"217": {
		"ENG": "User Is Disabled.",
		"SPA": "Usuario Está Deshabilitado."
	},
	"218": {
		"ENG": "User Is Already Eabled.",
		"SPA": "Usuario Ya Está Habilitado."
	}
}